{"pagination":{"total":125772,"limit":10,"offset":0,"total_pages":12578,"current_page":1,"next_url":"https:\/\/api.artic.edu\/api\/v1\/artworks?page=2&fields=id%2Ctitle%2Cthumbnail%2Cdimensions%2Cartist_title%2Cartist_display%2Cdate_display%2Cmain_reference_number%2Ctheme_titles&limit=10"},"data":[{"id":156578,"title":"Man's Shoulder Bag","thumbnail":{"lqip":"data:image\/gif;base64,R0lGODlhBAAFAPQAAG1fVW1iWntxbn11c4h9eYeBfIeBfYyDgpGHgpGIhJSUlJaWlqCgoKChoaWko6WlpKmpqaqpqayrrK6trQAAAAAAAAAAAAAAAAAAAAAAAAAAAAAAAAAAAAAAAAAAAAAAACH5BAAAAAAALAAAAAAEAAUAAAURoJQgE3QQ0DMIDgMEzFIUSwgAOw==","width":10160,"height":13546,"alt_text":"A work made of linen, cotton cloth, and glass beads."},"main_reference_number":"2001.7","date_display":"c. 1875\u20131900","artist_display":"Winnebago\nWestern Great Lakes, northeastern Woodlands","dimensions":"80.7 \u00d7 28.8 \u00d7 1 cm (31 3\/4 \u00d7 11 5\/16 \u00d7 3\/8 in.); With fringe: H.: 92.4 cm (36 7\/16 in.)","artist_title":"Winnebago","theme_titles":[]},{"id":152010,"title":"Man's Shoulder Bag","thumbnail":{"lqip":"data:image\/gif;base64,R0lGODlhBAAFAPQAAFxQSl1RS1pTTl1XUXJgX3RgX4+FgZKIhZKSj5+UiJSTkZybl56dmqCViaOfnaOgnKShn6akoLGwsbGxsgAAAAAAAAAAAAAAAAAAAAAAAAAAAAAAAAAAAAAAAAAAAAAAACH5BAAAAAAALAAAAAAEAAUAAAUR4JQ0E3QYTjQIDwMAi1IQSAgAOw==","width":9925,"height":13234,"alt_text":"A work made of cotton, velvet, yarn, and glass seed beads."},"main_reference_number":"1999.244","date_display":"Mid\u2013late 19th century","artist_display":"Maker unknown (Potawatomi)\nGreat Lakes region","dimensions":"106.3 \u00d7 46.4 \u00d7 1.5 cm (41 13\/16 \u00d7 18 1\/4 \u00d7 9\/16 in.)","artist_title":"Potawatomi","theme_titles":[]},{"id":111629,"title":"Self-Portrait","thumbnail":{"lqip":"data:image\/gif;base64,R0lGODlhBAAFAPQAAHVzM3x1MXxoXHh4WE5scXBoaJVOPY5\/K5F5IpV\/JYpvMItvMJNqOYN8QoN7XYWBX4uEY4eEbn2Mi1KJrQAAAAAAAAAAAAAAAAAAAAAAAAAAAAAAAAAAAAAAAAAAAAAAACH5BAAAAAAALAAAAAAEAAUAAAURYMAYCwAJy+E8CTJEDVFIUwgAOw==","width":6950,"height":8496,"alt_text":"A vividly colored self-portrait in oil paint by the artist Beauford Delaney. Delaney depicts himself using bold, thick strokes of paint. His skin tone is polychromatic and contrasted by a mustard yellow background. He wears a blue shirt with accents of red and bright red hat."},"main_reference_number":"1991.27","date_display":"1944","artist_display":"Beauford Delaney (American, 1901\u20131979)","dimensions":"68.6 \u00d7 57.2 cm (27 \u00d7 22 1\/2 in.)","artist_title":"Beauford Delaney","theme_titles":["African American artists","African Diaspora"]},{"id":144349,"title":"Pair of Wine Coolers","thumbnail":{"lqip":"data:image\/gif;base64,R0lGODlhBwAFAPQAAF9fX2NiYmRkZGVlZWdnZ2hnZ2hoaGlpaGlpaWpqam1sbHhzbH54cIJ8d4Z+doZ\/d4aAeomCeo6IgZCKhJKMhJuVjpuamp+enaioqLi1sry5t8C+vMLAvsnIyNLR0NbV1SH5BAAAAAAALAAAAAAHAAUAAAUdYIAYxVEMADQJjVQQS6QwT2JF1eVQWJdxHs3mEwIAOw==","width":3000,"height":2250,"alt_text":"A work made of silver."},"main_reference_number":"1996.15.1-2","date_display":"1873","artist_display":"Tiffany and Company\nAmerican, founded 1837\nChasing by Eugene J. Soligny\nAmerican, c. 1833\u20131901\nNew York","dimensions":"Each h: H.: 35 cm (13 3\/8 in.)","artist_title":"Tiffany and Company","theme_titles":["Drinking and Dining"]},{"id":63750,"title":"Cours de Th\u00e9orie pour la Tissage","thumbnail":{"lqip":"data:image\/gif;base64,R0lGODlhBAAFAPQAANHQzdLRz9nY1dvZ1tra19va193b2e7t6fLx7vj28fj28vn28vr38\/r49Pv49fv59fz59Pz59QAAAAAAAAAAAAAAAAAAAAAAAAAAAAAAAAAAAAAAAAAAAAAAAAAAAAAAACH5BAAAAAAALAAAAAAEAAUAAAURoGMYzBMAT3IgSzMQkSIUUAgAOw==","width":2394,"height":2947,"alt_text":"A work made of weaver's notebook, handwritten in french, showing diagrams for weaving, swatches and drawings of looms."},"main_reference_number":"1948.492","date_display":"1869","artist_display":"P. Audibert (French, active c. 1869 ) and A. Seris (French, active c. 1869)\nFrance","dimensions":"Average length of swatches: 4 cm (1 5\/8 in.); 11 cm (4 3\/8 in.); 3.5 cm (1 3\/8 in.)\nAverage width of swatches: 7 cm (2 3\/4 in.); 17.3 cm (6 3\/4 in.); 5 cm (2 in.)\nMeasurement of volume: 44 \u00d7 31 \u00d7 4 cm (17 3\/8 \u00d7 12 1\/4 \u00d7 1 5\/8 in.)\nMeasurement of bo\u00d7: 46.4 \u00d7 32.5 \u00d7 6 cm (18 1\/4 \u00d7 12 7\/8 \u00d7 2 3\/8 in.)","artist_title":"P. Audibert","theme_titles":[]},{"id":6623,"title":"Copy of the Goods of Montpellier","thumbnail":{"lqip":"data:image\/gif;base64,R0lGODlhAgAFAPMAAKRubqRzcat1dap9ea5+e6yNf6+OgrOJg6yTgq+WhQAAAAAAAAAAAAAAAAAAAAAAACH5BAAAAAAALAAAAAACAAUAAAQIMCFTBCDhjAgAOw==","width":2961,"height":8779,"alt_text":"A work made of cotton, plain weave; block printed and copperplate printed; total of swatches: 2390."},"main_reference_number":"1957.499","date_display":"1810","artist_display":"France","dimensions":"Average length of swatches: H.: 3.9 cm (1 1\/2 in.); Average width of swatches: W.: 2.5 cm (1 in.); Measurement of volume: 49.2 \u00d7 19.7 \u00d7 4.5 cm (19 3\/8 \u00d7 7 3\/4 \u00d7 1 3\/4 in.); 51.3 \u00d7 21.6 \u00d7 7.8 cm (20 1\/8 \u00d7 8 5\/8 \u00d7 3 in.)","artist_title":null,"theme_titles":[]},{"id":76722,"title":"Feed Sack","thumbnail":{"lqip":"data:image\/gif;base64,R0lGODlhBgAFAPQAAHF8eG5\/h3B\/hXSDgnODiXqKjnuKjn6Mjn+PkX2OlIKTmIaWmJyln42co5OfopGgpZKgpZmloJmnp5+sq56srbOrpriwrL23r6OwsaCwsqSwsriysMO3sNDGuQAAAAAAACH5BAAAAAAALAAAAAAGAAUAAAUYIKEcyGI8GDNpzrVxnVU1UkRlUFAAQyKEADs=","width":1407,"height":1111,"alt_text":"A work made of cotton, plain weave; roller printed."},"main_reference_number":"1990.211.5","date_display":"1950\/2000","artist_display":"United States, Evansville, Indiana","dimensions":"97 \u00d7 62.2 cm (38 1\/4 \u00d7 24 1\/2 in.); Repeat: 19 \u00d7 43.3 cm (7 1\/2 \u00d7 17 in.)","artist_title":null,"theme_titles":[]},{"id":230315,"title":"Student Notebook Containing Notes, Diagrams and Swatches","thumbnail":{"lqip":"data:image\/gif;base64,R0lGODlhBwAFAPUAAKSNd6WIeqKPf66Wf6OQgaOThquVgKyWhqyegaaXi6ebk6uclLGhjb2jir+qmMq0mc+1nM24nsWxosK0pci2pcGzqMS3q8e3qsu5q9m9pMi8ssm9s869strAp8\/AtNzFsdnGteLMt+bSwQAAAAAAAAAAAAAAAAAAAAAAAAAAAAAAAAAAAAAAAAAAAAAAAAAAAAAAAAAAAAAAAAAAAAAAAAAAAAAAAAAAAAAAAAAAAAAAAAAAAAAAAAAAAAAAAAAAACH5BAAAAAAALAAAAAAHAAUAAAYhwARFU9lYFIMG4zFxCAwQUAQRIAAyok7ocyhIOBcPZhEEADs=","width":2963,"height":2250,"alt_text":"A work made of bound notebook of technical notes and weave samples: fabrics for clothing and mixed goods, ribbed and twill cottons, and jacquard; 176 pages."},"main_reference_number":"2015.597","date_display":"c. 1898\u20131900","artist_display":"Alfred Fehr (Switzerland, 1879-1955)","dimensions":"38.7 \u00d7 27.3 \u00d7 6.7 cm (15 1\/4 \u00d7 10 3\/4 \u00d7 2 5\/8 in.)","artist_title":"Alfred Fehr","theme_titles":[]},{"id":5848,"title":"Landscape with Saint John on Patmos","thumbnail":{"lqip":"data:image\/gif;base64,R0lGODlhBwAFAPUAAB4eDyYhCzctHzk7LEkxH0kyHkE0IUE0JUc6IkI4JEc8JEw9K1Q9LVU\/LVY\/LldCLFlBKVlBLUVGPEtLO15FNFJINFNMPHhVOEBKRFlVRndYRWliVl9qaIOAemuKmnWRnYqLhpCMhY230wAAAAAAAAAAAAAAAAAAAAAAAAAAAAAAAAAAAAAAAAAAAAAAAAAAAAAAAAAAAAAAAAAAAAAAAAAAAAAAAAAAAAAAAAAAAAAAAAAAAAAAAAAAAAAAAAAAACH5BAAAAAAALAAAAAAHAAUAAAYhQM7gI\/JgJKBMJzQJADaWigKxOAgYhgQk4qBoGo9LgRAEADs=","width":3000,"height":2220,"alt_text":"Painting of Greek landscape, classical architecture, yellow, red robed man reading."},"main_reference_number":"1930.500","date_display":"1640","artist_display":"Nicolas Poussin (French, 1594\u20131665)","dimensions":"100.3 \u00d7 136.4 cm (39 1\/2 \u00d7 53 5\/8 in.); Framed: 128.6 \u00d7 164.1 cm (50 5\/8 \u00d7 64 5\/8 in.)","artist_title":"Nicolas Poussin","theme_titles":["Essentials"]},{"id":45829,"title":"Landscape with a Herdsman and Goats","thumbnail":{"lqip":"data:image\/gif;base64,R0lGODlhCQAFAPUAACcnFC0qFi4tFSssGi4tGTEuGTYxGDk1Gjg4Hjk5Hz05HjQ4Ij48JEg8H0I7IUpCJVFFKVJJLVBILk5KM09NM1JVOlpTOVtaO1paPmNjQWJgRG9pRHN4XXh5WJaRb6Oadp6eipmcjJeglKSmlLGvmL21k7+6n8PAqtzRrs3LsdbXv9XVwNnYwQAAAAAAAAAAAAAAAAAAAAAAAAAAAAAAAAAAAAAAAAAAAAAAAAAAAAAAAAAAAAAAAAAAAAAAAAAAACH5BAAAAAAALAAAAAAJAAUAAAYqQE6m4yGNQCGR6VNCpVSs1UlimWA2l4qGAigEDIoEQnAYRB4QwoLRcAQBADs=","width":3000,"height":1668,"alt_text":"A work made of oil on canvas."},"main_reference_number":"1973.669","date_display":"c. 1635","artist_display":"Gaspard Dughet (French, 1615-1675)","dimensions":"68 \u00d7 120.4 cm (26 3\/4 \u00d7 47 7\/16 in.)","artist_title":"Gaspard Dughet","theme_titles":[]}],"info":{"license_text":"The `description` field in this response is licensed under a Creative Commons Attribution 4.0 Generic License (CC-By) and the Terms and Conditions of artic.edu. All other data in this response is licensed under a Creative Commons Zero (CC0) 1.0 designation and the Terms and Conditions of artic.edu.","license_links":["https:\/\/creativecommons.org\/publicdomain\/zero\/1.0\/","https:\/\/www.artic.edu\/terms"],"version":"1.10"},"config":{"iiif_url":"https:\/\/www.artic.edu\/iiif\/2","website_url":"http:\/\/www.artic.edu"}}
